2_Topic_modeling
…
zuzannazagrodzka

2022-09-21

Getting beta values

# Getting beta values from the topic modeling and adding beta value to the data_words 

td_beta <- tidy(topic_model) # getting beta values
td_beta %>% 
  group_by(term) %>% 
  arrange(term, -beta)

# A tibble: 220,896 × 3
# Groups:   term [2,832]
   topic term       beta
   <int> <chr>     <dbl>
 1    51 abide 3.55e-  3
 2    33 abide 2.95e-  3
 3    69 abide 2.10e-126
 4    11 abide 3.55e-230
 5    13 abide 3.68e-254
 6    78 abide 6.10e-263
 7    53 abide 1.38e-284
 8    71 abide 1.34e-285
 9    70 abide 4.02e-289
10    55 abide 2.99e-289
# … with 220,886 more rows
…
